^C:\USERS\VENTURE\DOCUMENTS\JOE\UNI\2ND YEAR\GRAPHICS\DRAW\DRAW\DEBUG\DRAW.OBJ|C:\USERS\VENTURE\DOCUMENTS\JOE\UNI\2ND YEAR\GRAPHICS\DRAW\DRAW\DEBUG\STDAFX.OBJ
C:\USERS\VENTURE\DOCUMENTS\JOE\UNI\2ND YEAR\GRAPHICS\DRAW\DEBUG\DRAW.ILK
C:\USERS\VENTURE\DOCUMENTS\JOE\UNI\2ND YEAR\GRAPHICS\DRAW\DEBUG\DRAW.EXE
C:\USERS\VENTURE\DOCUMENTS\JOE\UNI\2ND YEAR\GRAPHICS\DRAW\DEBUG\DRAW.PDB
